FT1234,103,SBINBM23445,PNBPUS3NNYC,34000,46573657344098,received
FT5666,103,SDRHGHHKH,PNBPUS3NNYC,66565,46573657344098,received
FT7657,103,SBINBM23445,PNBPUS3NNYC,544656,46573657344098,received
FT1234,103,SBINBM23445,PNBPUS3NNYC,34000,46573657344098,received
FT5666,103,SDRHGHHKH,PNBPUS3NNYC,66565,46573657344098,received
FT7657,103,SBINBM23445,PNBPUS3NNYC,544656,46573657344098,received
FT1234,103,SBINBM23445,PNBPUS3NNYC,34000,46573657344098,received
FT5666,103,SDRHGHHKH,PNBPUS3NNYC,66565,46573657344098,received
FT1234,103,SBINBM23445,PNBPUS3NNYC,34000,46573657344098,received
FT5666,103,SDRHGHHKH,PNBPUS3NNYC,66565,46573657344098,received
FT7657,103,SBINBM23445,PNBPUS3NNYC,544656,46573657344098,received
FT1234,103,SBINBM23445,PNBPUS3NNYC,34000,46573657344098,received
FT5666,103,SDRHGHHKH,PNBPUS3NNYC,66565,46573657344098,received
FT7657,103,SBINBM23445,PNBPUS3NNYC,544656,46573657344098,received
FT1234,103,SBINBM23445,PNBPUS3NNYC,34000,46573657344098,received
FT5666,103,SDRHGHHKH,PNBPUS3NNYC,66565,46573657344098,received
FT7657,103,SBINBM23445,PNBPUS3NNYC,544656,46573657344098,received
FT1234,103,SBINBM23445,PNBPUS3NNYC,34000,46573657344098,received
FT5666,103,SDRHGHHKH,PNBPUS3NNYC,66565,46573657344098,received
FT7657,103,SBINBM23445,PNBPUS3NNYC,544656,46573657344098,received
FT1234,103,SBINBM23445,PNBPUS3NNYC,34000,46573657344098,received
FT5666,103,SDRHGHHKH,PNBPUS3NNYC,66565,46573657344098,received
FT7657,103,SBINBM23445,PNBPUS3NNYC,544656,46573657344098,received
FT1234,103,SBINBM23445,PNBPUS3NNYC,34000,46573657344098,received
FT5666,103,SDRHGHHKH,PNBPUS3NNYC,66565,46573657344098,received
FT7657,103,SBINBM23445,PNBPUS3NNYC,544656,46573657344098,received
FT1234,103,SBINBM23445,PNBPUS3NNYC,34000,46573657344098,received
FT5666,103,SDRHGHHKH,PNBPUS3NNYC,66565,46573657344098,received
FT7657,103,SBINBM23445,PNBPUS3NNYC,544656,46573657344098,received
FT1234,103,SBINBM23445,PNBPUS3NNYC,34000,46573657344098,received
FT5666,103,SDRHGHHKH,PNBPUS3NNYC,66565,46573657344098,received
FT7657,103,SBINBM23445,PNBPUS3NNYC,544656,46573657344098,received